%YAML 1.1
%TAG !u! tag:unity3d.com,2011:
--- !u!162 &1
EditorUserSettings:
  m_ObjectHideFlags: 0
  serializedVersion: 4
  m_ConfigSettings:
    RecentlyUsedScenePath-0:
      value: 22424703114646680e0b0227036c72111f19352f223d68252320092a
      flags: 0
    RecentlyUsedScenePath-1:
      value: 22424703114646680e0b0227036c700502181625623d28393930
      flags: 0
    RecentlyUsedScenePath-2:
      value: 22424703114646680e0b0227036c6c00041e162d6c7a68252320092a
      flags: 0
    RecentlyUsedScenePath-3:
      value: 22424703114646680e0b0227036c6c051b1a1d386c7a68252320092a
      flags: 0
    RecentlyUsedScenePath-4:
      value: 22424703114646680e0b0227036c681918031d386c7a68252320092a
      flags: 0
    RecentlyUsedScenePath-5:
      value: 22424703114646680e0b0227036c6c051b1a1d38623d28393930
      flags: 0
    RecentlyUsedScenePath-6:
      value: 22424703114646680e0b0227036c681918031d38623d28393930
      flags: 0
    RecentlyUsedScenePath-7:
      value: 22424703114646680e0b0227036c6c00041e162d623d28393930
      flags: 0
    vcSharedLogLevel:
      value: 0d5e400f0650
      flags: 0
  m_VCAutomaticAdd: 1
  m_VCDebugCom: 0
  m_VCDebugCmd: 0
  m_VCDebugOut: 0
  m_SemanticMergeMode: 2
  m_VCShowFailedCheckout: 1
  m_VCOverwriteFailedCheckoutAssets: 1
  m_VCProjectOverlayIcons: 1
  m_VCHierarchyOverlayIcons: 1
  m_VCOtherOverlayIcons: 1
  m_VCAllowAsyncUpdate: 1
